{
	"type": "minecraft:crafting_shapeless",
	"ingredients": [
		{
			"item": "minecraft:paper"
		},
		{
			"item": "quickie:speedpowder"
		},
		{
			"item": "quickie:pencil"
		}
	],
	"result": {
		"item": "quickie:construction0",
		"count": 1
	}
}