{
	"type": "minecraft:crafting_shapeless",
	"ingredients": [
		{
			"item": "quickie:construction1"
		},
		{
			"item": "quickie:pencil"
		}
	],
	"result": {
		"item": "quickie:construction0",
		"count": 1
	}
}