{
	"type": "minecraft:crafting_shaped",
	"pattern": [
		" c ",
		"ccc",
		"   "
	],
	"key": {
		"c": {
			"item": "quickie:constructionborder"
		}
	},
	"result": {
		"item": "quickie:moveup",
		"count": 1
	}
}