{
	"type": "minecraft:crafting_shaped",
	"pattern": [
		"c  ",
		"c  ",
		" cc"
	],
	"key": {
		"c": {
			"item": "quickie:constructionborder"
		}
	},
	"result": {
		"item": "quickie:rotatecounterclockwise",
		"count": 1
	}
}